{
    "data": [
        {
            "video_id": "Fsxy1XtrmTU",
            "video_kind": "youtube#searchResult",
            "channel_id": "UCcXLGa2nmWiVOdEwHnUfiBQ",
            "description": "Asia Cup 2025 India Squad Updates Live: होने वाला है Team India का ऐलान, किसे मिलेगी जगह ?",
            "thumbnail_url": "https://i.ytimg.com/vi/Fsxy1XtrmTU/default_live.jpg",
            "published_at": "2025-08-19 07:09:48",
            "id": 28,
            "title": "🔴 Asia Cup 2025 India Squad Updates Live: होने वाला है Team India का ऐलान, किसे मिलेगी जगह ?",
            "channel_title": "IndiaTV Cricket"
        },
        {
            "video_id": "jVvdVGYNvuE",
            "video_kind": "youtube#searchResult",
            "channel_id": "UCsud1PApeldug5rZr_XijhA",
            "description": "AUS Vs SA LIVE MATCH SCORE & LIVE CRICKET COMMENTARY | AUSTRALIA VS SOUTH AFRICA, 1ST ODI | SA BATTING ...",
            "thumbnail_url": "https://i.ytimg.com/vi/jVvdVGYNvuE/default_live.jpg",
            "published_at": "2025-08-19 06:48:04",
            "id": 23,
            "title": "AUS Vs SA LIVE MATCH SCORE &amp; LIVE CRICKET COMMENTARY | AUSTRALIA VS SOUTH AFRICA 1ST ODI, SA BATTING",
            "channel_title": "UH Sports"
        },
        {
            "video_id": "eDzKhl4g50w",
            "video_kind": "youtube#searchResult",
            "channel_id": "UCJVPpVJjueuGiwXmDAxaGbA",
            "description": "",
            "thumbnail_url": "https://i.ytimg.com/vi/eDzKhl4g50w/default.jpg",
            "published_at": "2025-08-19 06:43:44",
            "id": 29,
            "title": "#cricket #ipl#rcb#motivation#lsg#viratkohli#abhisheksharma#rohitsharma#indvsengt20#latest#gamtng",
            "channel_title": "Education_Master.05"
        },
        {
            "video_id": "GJw6tLjVh7M",
            "video_kind": "youtube#searchResult",
            "channel_id": "UCaIO-mQSk06WdA2pzwxeing",
            "description": "Salman Shubhman Shahrukh Baber #cricket #shorts #ashiacup.",
            "thumbnail_url": "https://i.ytimg.com/vi/GJw6tLjVh7M/default.jpg",
            "published_at": "2025-08-19 06:39:02",
            "id": 30,
            "title": "Salman 🆚 Shubhman 🆚 Shahrukh 🆚Baber #cricket #shorts #ashiacup",
            "channel_title": "Ajay Sports "
        },
        {
            "video_id": "wMD1hScuBT0",
            "video_kind": "youtube#searchResult",
            "channel_id": "UCPlDKYgq_sfRE1-2WfDDsMw",
            "description": "TOP 3 CRICKETERS JERSEY ON DATE OF BIRTH   #ipl2025 #viratkohli #msdhoni #royalchallengersbangalore #rohitsharma ...",
            "thumbnail_url": "https://i.ytimg.com/vi/wMD1hScuBT0/default.jpg",
            "published_at": "2025-08-19 06:33:04",
            "id": 31,
            "title": "TOP 3 CRICKETERS JERSEY ON DATE OF BIRTH🥵",
            "channel_title": "Aamir Cric Tadka"
        },
        {
            "video_id": "r_u1Nn5Vnw0",
            "video_kind": "youtube#searchResult",
            "channel_id": "UCQUVnt60y903VrOM6irFXaQ",
            "description": "CRICKET EVOLUTION, INDIA WINNING #t20worldcup #cricket #cr7 #india #viralvideo #scorbord #trendingCRICKET ...",
            "thumbnail_url": "https://i.ytimg.com/vi/r_u1Nn5Vnw0/default.jpg",
            "published_at": "2025-08-19 06:30:15",
            "id": 24,
            "title": "CRICKET EVOLUTION, INDIA WINNING 🏆#t20worldcup #cricket #cr7 #india #viralvideo #scorbord #trending",
            "channel_title": "PK_Stark_CRICKET ACADEMY 🏏"
        },
        {
            "video_id": "HWmFHZuLJrQ",
            "video_kind": "youtube#searchResult",
            "channel_id": "UCVXCo0W9pk2dDkEBNLhTt7A",
            "description": "With the Asia Cup 2025 squad announcement approaching, the selection of Shubman Gill and Yashasvi Jaiswal has become a ...",
            "thumbnail_url": "https://i.ytimg.com/vi/HWmFHZuLJrQ/default_live.jpg",
            "published_at": "2025-08-19 05:44:48",
            "id": 25,
            "title": "🔴ASIA CUP 2025 TEAM INDIA SQUAD SELECTION LIVE : TEAM INDIA में GILL और JAISWAL को मिलेगी ENTRY?",
            "channel_title": "Sports Tak"
        },
        {
            "video_id": "nXKR7vXI-GE",
            "video_kind": "youtube#searchResult",
            "channel_id": "UCS3JIxyt2h9_eVlV0Vid7tA",
            "description": "Top 5 Moments In Cricket #cricket Polard #cricketlover #indvsengmatch #cricket #indvsbanlivematchtoday #ipl ...",
            "thumbnail_url": "https://i.ytimg.com/vi/nXKR7vXI-GE/default.jpg",
            "published_at": "2025-08-19 05:40:37",
            "id": 26,
            "title": "Top 5 Moments In Cricket 😆😆 #cricket Polard 😆 #cricketlover",
            "channel_title": "Cricket Hot Gold "
        },
        {
            "video_id": "dVH5g8nOmcU",
            "video_kind": "youtube#searchResult",
            "channel_id": "UCUMFTrd_lgSb7ec9rmZ-uaw",
            "description": "Nepal vs Hobart Hurricanes Live Scores & Commentary | Top End T20 Series Match 18 | Cricfoot Nepal It is the official channel ...",
            "thumbnail_url": "https://i.ytimg.com/vi/dVH5g8nOmcU/default_live.jpg",
            "published_at": "2025-08-19 04:38:47",
            "id": 27,
            "title": "Nepal vs Hobart Hurricanes Live Scores &amp; Commentary | Top End T20 Series Match 18 | Cricfoot Nepal",
            "channel_title": "Cricfoot Nepal"
        },
        {
            "video_id": "hqiZpriFX-s",
            "video_kind": "youtube#searchResult",
            "channel_id": "UChla9dpiayjFXG1NEZzDOjg",
            "description": "",
            "thumbnail_url": "https://i.ytimg.com/vi/hqiZpriFX-s/default.jpg",
            "published_at": "2025-08-18T15:42:11Z",
            "id": 21,
            "title": "#irfanpathan#ishankishan #viratkohli#rohitsharma #rohitsharma45#icct20worldcup #viraltrending #icc",
            "channel_title": "criclover"
        }
    ],
    "pagination": {
        "current_page": 1,
        "page_size": 10,
        "total_count": 31,
        "total_pages": 4,
        "has_next": true,
        "has_previous": false,
        "next_page": 2,
        "previous_page": null
    }
}